Library\Bee\artifacts\movedfrom\Unity.2D.Animation.Editor.ref.dll_11618115258185575947.movedfrom
Library\Bee\artifacts\movedfrom\Unity.2D.Animation.Runtime.ref.dll_7442030340276972016.movedfrom
Library\Bee\artifacts\movedfrom\Unity.2D.Animation.Triangle.Runtime.ref.dll_2466708177045823920.movedfrom
Library\Bee\artifacts\movedfrom\Unity.2D.Common.Editor.ref.dll_13644118841584069410.movedfrom
Library\Bee\artifacts\movedfrom\Unity.2D.Common.Runtime.ref.dll_8609069629425828841.movedfrom
Library\Bee\artifacts\movedfrom\Unity.2D.IK.Editor.ref.dll_17727106842912892987.movedfrom
Library\Bee\artifacts\movedfrom\Unity.2D.IK.Runtime.ref.dll_1653431992716178624.movedfrom
Library\Bee\artifacts\movedfrom\Unity.2D.Path.Editor.ref.dll_6357241933857299064.movedfrom
Library\Bee\artifacts\movedfrom\Unity.2D.PixelPerfect.Editor.ref.dll_5765172664106009878.movedfrom
Library\Bee\artifacts\movedfrom\Unity.2D.PixelPerfect.ref.dll_9856681549612413003.movedfrom
Library\Bee\artifacts\movedfrom\Unity.2D.Psdimporter.Editor.ref.dll_13216594725484200860.movedfrom
Library\Bee\artifacts\movedfrom\Unity.2D.Sprite.Editor.ref.dll_15977261275114544680.movedfrom
Library\Bee\artifacts\movedfrom\Unity.2D.SpriteShape.Editor.ref.dll_1940703435738714035.movedfrom
Library\Bee\artifacts\movedfrom\Unity.2D.SpriteShape.Runtime.ref.dll_13607063483196750280.movedfrom
Library\Bee\artifacts\movedfrom\Unity.2D.Tilemap.Editor.ref.dll_4858273654674696337.movedfrom
Library\Bee\artifacts\movedfrom\Unity.2D.Tilemap.Extras.Editor.ref.dll_10205161182716544682.movedfrom
Library\Bee\artifacts\movedfrom\Unity.2D.Tilemap.Extras.ref.dll_3971670665523324279.movedfrom
Library\Bee\artifacts\movedfrom\Unity.InternalAPIEditorBridge.001.ref.dll_14012374195079120638.movedfrom
Library\Bee\artifacts\movedfrom\Unity.InternalAPIEngineBridge.001.ref.dll_13038110867686256195.movedfrom
Library\Bee\artifacts\movedfrom\Unity.Mathematics.Editor.ref.dll_11106105192880348995.movedfrom
Library\Bee\artifacts\movedfrom\Unity.Mathematics.ref.dll_16784875247615350606.movedfrom
Library\Bee\artifacts\movedfrom\Unity.PlasticSCM.Editor.ref.dll_2700729535869450326.movedfrom
Library\Bee\artifacts\movedfrom\Unity.RenderPipelines.Core.Editor.ref.dll_5110349078272833937.movedfrom
Library\Bee\artifacts\movedfrom\Unity.RenderPipelines.Core.Runtime.ref.dll_14873774152507386634.movedfrom
Library\Bee\artifacts\movedfrom\Unity.RenderPipelines.Core.ShaderLibrary.ref.dll_9163770854126867736.movedfrom
Library\Bee\artifacts\movedfrom\Unity.RenderPipelines.HighDefinition.Config.Runtime.ref.dll_4222262680459510234.movedfrom
Library\Bee\artifacts\movedfrom\Unity.RenderPipelines.HighDefinition.Editor.ref.dll_8811657713732420427.movedfrom
Library\Bee\artifacts\movedfrom\Unity.RenderPipelines.HighDefinition.Runtime.ref.dll_9843187990593986736.movedfrom
Library\Bee\artifacts\movedfrom\Unity.RenderPipelines.ShaderGraph.ShaderGraphLibrary.ref.dll_1882649454426767128.movedfrom
Library\Bee\artifacts\movedfrom\Unity.Rider.Editor.ref.dll_11193012430168537007.movedfrom
Library\Bee\artifacts\movedfrom\Unity.Searcher.Editor.ref.dll_1348794520514444814.movedfrom
Library\Bee\artifacts\movedfrom\Unity.ShaderGraph.Editor.ref.dll_1103405175732373968.movedfrom
Library\Bee\artifacts\movedfrom\Unity.TextMeshPro.Editor.ref.dll_1557689244747631494.movedfrom
Library\Bee\artifacts\movedfrom\Unity.TextMeshPro.ref.dll_9557809654341403355.movedfrom
Library\Bee\artifacts\movedfrom\Unity.Timeline.Editor.ref.dll_953984715949700626.movedfrom
Library\Bee\artifacts\movedfrom\Unity.Timeline.ref.dll_7069769579887910799.movedfrom
Library\Bee\artifacts\movedfrom\Unity.VSCode.Editor.ref.dll_3902429132378491929.movedfrom
Library\Bee\artifacts\movedfrom\Unity.VisualEffectGraph.Editor.ref.dll_4677073264992672684.movedfrom
Library\Bee\artifacts\movedfrom\Unity.VisualEffectGraph.Runtime.ref.dll_519808427722341823.movedfrom
Library\Bee\artifacts\movedfrom\Unity.VisualScripting.Core.Editor.ref.dll_17134060296949054973.movedfrom
Library\Bee\artifacts\movedfrom\Unity.VisualScripting.Core.ref.dll_15518829177300997364.movedfrom
Library\Bee\artifacts\movedfrom\Unity.VisualScripting.Flow.Editor.ref.dll_7708282115428993342.movedfrom
Library\Bee\artifacts\movedfrom\Unity.VisualScripting.Flow.ref.dll_2192924542065166755.movedfrom
Library\Bee\artifacts\movedfrom\Unity.VisualScripting.State.Editor.ref.dll_16156761413022531439.movedfrom
Library\Bee\artifacts\movedfrom\Unity.VisualScripting.State.ref.dll_15643080368937755746.movedfrom
Library\Bee\artifacts\movedfrom\Unity.VisualStudio.Editor.ref.dll_4221946230532187309.movedfrom
Library\Bee\artifacts\movedfrom\UnityEditor.UI.ref.dll_5519394401220875509.movedfrom
Library\Bee\artifacts\movedfrom\UnityEngine.UI.ref.dll_648142665722821984.movedfrom
Library\Bee\artifacts\movedfrom\Unity.VisualScripting.Antlr3.Runtime.dll_7932896530963326897.movedfrom
Library\Bee\artifacts\movedfrom\UnityEditor.CoreModule.dll_11305334995260897560.movedfrom
Library\Bee\artifacts\movedfrom\UnityEditor.DeviceSimulatorModule.dll_1683795146941909033.movedfrom
Library\Bee\artifacts\movedfrom\UnityEditor.dll_16666121611847984381.movedfrom
Library\Bee\artifacts\movedfrom\UnityEditor.GraphViewModule.dll_8850640272523004718.movedfrom
Library\Bee\artifacts\movedfrom\UnityEditor.PackageManagerUIModule.dll_14287475926214621300.movedfrom
Library\Bee\artifacts\movedfrom\UnityEditor.QuickSearchModule.dll_16168268731414168720.movedfrom
Library\Bee\artifacts\movedfrom\UnityEditor.SceneTemplateModule.dll_16646342664938435857.movedfrom
Library\Bee\artifacts\movedfrom\UnityEditor.UIBuilderModule.dll_14941949106236982370.movedfrom
Library\Bee\artifacts\movedfrom\UnityEditor.UIElementsModule.dll_10557703440970588500.movedfrom
Library\Bee\artifacts\movedfrom\UnityEditor.UIElementsSamplesModule.dll_1261313813243326809.movedfrom
Library\Bee\artifacts\movedfrom\UnityEditor.UIServiceModule.dll_598566359532557436.movedfrom
Library\Bee\artifacts\movedfrom\UnityEditor.UnityConnectModule.dll_3207916236503167950.movedfrom
Library\Bee\artifacts\movedfrom\UnityEngine.AccessibilityModule.dll_1849039960574516398.movedfrom
Library\Bee\artifacts\movedfrom\UnityEngine.AIModule.dll_10071040747818914924.movedfrom
Library\Bee\artifacts\movedfrom\UnityEngine.AndroidJNIModule.dll_1210738408525664298.movedfrom
Library\Bee\artifacts\movedfrom\UnityEngine.AnimationModule.dll_5285333257433178068.movedfrom
Library\Bee\artifacts\movedfrom\UnityEngine.ARModule.dll_4987256336708825909.movedfrom
Library\Bee\artifacts\movedfrom\UnityEngine.AssetBundleModule.dll_2615023140138776962.movedfrom
Library\Bee\artifacts\movedfrom\UnityEngine.AudioModule.dll_7234164072506993606.movedfrom
Library\Bee\artifacts\movedfrom\UnityEngine.ClothModule.dll_14649443091443419818.movedfrom
Library\Bee\artifacts\movedfrom\UnityEngine.ClusterInputModule.dll_12403269511720109716.movedfrom
Library\Bee\artifacts\movedfrom\UnityEngine.ClusterRendererModule.dll_2092710605587404205.movedfrom
Library\Bee\artifacts\movedfrom\UnityEngine.CoreModule.dll_13836590337802822723.movedfrom
Library\Bee\artifacts\movedfrom\UnityEngine.CrashReportingModule.dll_10123308505434898363.movedfrom
Library\Bee\artifacts\movedfrom\UnityEngine.DirectorModule.dll_3171844425649269536.movedfrom
Library\Bee\artifacts\movedfrom\UnityEngine.dll_1868497031326888418.movedfrom
Library\Bee\artifacts\movedfrom\UnityEngine.DSPGraphModule.dll_3555038974470880321.movedfrom
Library\Bee\artifacts\movedfrom\UnityEngine.GameCenterModule.dll_4258912410181107995.movedfrom
Library\Bee\artifacts\movedfrom\UnityEngine.GIModule.dll_2594019789272382598.movedfrom
Library\Bee\artifacts\movedfrom\UnityEngine.GridModule.dll_11346411928268012090.movedfrom
Library\Bee\artifacts\movedfrom\UnityEngine.HotReloadModule.dll_14601238019010722646.movedfrom
Library\Bee\artifacts\movedfrom\UnityEngine.ImageConversionModule.dll_9870987571572477345.movedfrom
Library\Bee\artifacts\movedfrom\UnityEngine.IMGUIModule.dll_11296304725179088807.movedfrom
Library\Bee\artifacts\movedfrom\UnityEngine.InputLegacyModule.dll_13082825867243532147.movedfrom
Library\Bee\artifacts\movedfrom\UnityEngine.InputModule.dll_14617190797362352234.movedfrom
Library\Bee\artifacts\movedfrom\UnityEngine.JSONSerializeModule.dll_8773193803458100536.movedfrom
Library\Bee\artifacts\movedfrom\UnityEngine.LocalizationModule.dll_16892454896379263373.movedfrom
Library\Bee\artifacts\movedfrom\UnityEngine.ParticleSystemModule.dll_16109235952776694601.movedfrom
Library\Bee\artifacts\movedfrom\UnityEngine.PerformanceReportingModule.dll_12499862117031967746.movedfrom
Library\Bee\artifacts\movedfrom\UnityEngine.Physics2DModule.dll_10808417592245081961.movedfrom
Library\Bee\artifacts\movedfrom\UnityEngine.PhysicsModule.dll_13566951895727844183.movedfrom
Library\Bee\artifacts\movedfrom\UnityEngine.ProfilerModule.dll_6794490282579210797.movedfrom
Library\Bee\artifacts\movedfrom\UnityEngine.RuntimeInitializeOnLoadManagerInitializerModule.dll_15828860908957309490.movedfrom
Library\Bee\artifacts\movedfrom\UnityEngine.ScreenCaptureModule.dll_10639845161111349658.movedfrom
Library\Bee\artifacts\movedfrom\UnityEngine.SharedInternalsModule.dll_940700072021952753.movedfrom
Library\Bee\artifacts\movedfrom\UnityEngine.SpriteMaskModule.dll_2614098609645852309.movedfrom
Library\Bee\artifacts\movedfrom\UnityEngine.SpriteShapeModule.dll_4443815931445522828.movedfrom
Library\Bee\artifacts\movedfrom\UnityEngine.StreamingModule.dll_18297619410000844562.movedfrom
Library\Bee\artifacts\movedfrom\UnityEngine.SubstanceModule.dll_15751700550681859360.movedfrom
Library\Bee\artifacts\movedfrom\UnityEngine.SubsystemsModule.dll_10301011318895836840.movedfrom
Library\Bee\artifacts\movedfrom\UnityEngine.TerrainModule.dll_15460288305046352965.movedfrom
Library\Bee\artifacts\movedfrom\UnityEngine.TerrainPhysicsModule.dll_16143761524550780374.movedfrom
Library\Bee\artifacts\movedfrom\UnityEngine.TextCoreModule.dll_14177186069227707184.movedfrom
Library\Bee\artifacts\movedfrom\UnityEngine.TextRenderingModule.dll_13612064830548273551.movedfrom
Library\Bee\artifacts\movedfrom\UnityEngine.TilemapModule.dll_8469689587607197006.movedfrom
Library\Bee\artifacts\movedfrom\UnityEngine.TLSModule.dll_16669029724305280619.movedfrom
Library\Bee\artifacts\movedfrom\UnityEngine.UIElementsModule.dll_10606800242961332895.movedfrom
Library\Bee\artifacts\movedfrom\UnityEngine.UIElementsNativeModule.dll_1207250837440571542.movedfrom
Library\Bee\artifacts\movedfrom\UnityEngine.UIModule.dll_9743296317609875992.movedfrom
Library\Bee\artifacts\movedfrom\UnityEngine.UmbraModule.dll_16085052461644175161.movedfrom
Library\Bee\artifacts\movedfrom\UnityEngine.UNETModule.dll_5957058907110496700.movedfrom
Library\Bee\artifacts\movedfrom\UnityEngine.UnityAnalyticsModule.dll_18387899900728450373.movedfrom
Library\Bee\artifacts\movedfrom\UnityEngine.UnityConnectModule.dll_1865707272437675129.movedfrom
Library\Bee\artifacts\movedfrom\UnityEngine.UnityCurlModule.dll_8968329086421225921.movedfrom
Library\Bee\artifacts\movedfrom\UnityEngine.UnityTestProtocolModule.dll_14790890096314074799.movedfrom
Library\Bee\artifacts\movedfrom\UnityEngine.UnityWebRequestAssetBundleModule.dll_6655320488626432982.movedfrom
Library\Bee\artifacts\movedfrom\UnityEngine.UnityWebRequestAudioModule.dll_2698995643169916570.movedfrom
Library\Bee\artifacts\movedfrom\UnityEngine.UnityWebRequestModule.dll_11140729618423883808.movedfrom
Library\Bee\artifacts\movedfrom\UnityEngine.UnityWebRequestTextureModule.dll_13760481273142514607.movedfrom
Library\Bee\artifacts\movedfrom\UnityEngine.UnityWebRequestWWWModule.dll_2570636791528350699.movedfrom
Library\Bee\artifacts\movedfrom\UnityEngine.VehiclesModule.dll_11801578587550284475.movedfrom
Library\Bee\artifacts\movedfrom\UnityEngine.VFXModule.dll_7508312734091589592.movedfrom
Library\Bee\artifacts\movedfrom\UnityEngine.VideoModule.dll_9902973920766478187.movedfrom
Library\Bee\artifacts\movedfrom\UnityEngine.VirtualTexturingModule.dll_3840929107720186145.movedfrom
Library\Bee\artifacts\movedfrom\UnityEngine.VRModule.dll_15711171129215066000.movedfrom
Library\Bee\artifacts\movedfrom\UnityEngine.WindModule.dll_3914838376033641132.movedfrom
Library\Bee\artifacts\movedfrom\UnityEngine.XRModule.dll_921001427226520814.movedfrom