-target:library
-out:"Library/Bee/artifacts/1900b0aE.dag/Unity.RenderPipelines.HighDefinition.Runtime.dll"
-refout:"Library/Bee/artifacts/1900b0aE.dag/Unity.RenderPipelines.HighDefinition.Runtime.ref.dll"
-define:UNITY_2021_1_26
-define:UNITY_2021_1
-define:UNITY_2021
-define:UNITY_5_3_OR_NEWER
-define:UNITY_5_4_OR_NEWER
-define:UNITY_5_5_OR_NEWER
-define:UNITY_5_6_OR_NEWER
-define:UNITY_2017_1_OR_NEWER
-define:UNITY_2017_2_OR_NEWER
-define:UNITY_2017_3_OR_NEWER
-define:UNITY_2017_4_OR_NEWER
-define:UNITY_2018_1_OR_NEWER
-define:UNITY_2018_2_OR_NEWER
-define:UNITY_2018_3_OR_NEWER
-define:UNITY_2018_4_OR_NEWER
-define:UNITY_2019_1_OR_NEWER
-define:UNITY_2019_2_OR_NEWER
-define:UNITY_2019_3_OR_NEWER
-define:UNITY_2019_4_OR_NEWER
-define:UNITY_2020_1_OR_NEWER
-define:UNITY_2020_2_OR_NEWER
-define:UNITY_2020_3_OR_NEWER
-define:UNITY_2021_1_OR_NEWER
-define:PLATFORM_ARCH_64
-define:UNITY_64
-define:UNITY_INCLUDE_TESTS
-define:USE_SEARCH_ENGINE_API
-define:USE_QUICK_SEARCH_MODULE
-define:SCENE_TEMPLATE_MODULE
-define:ENABLE_AR
-define:ENABLE_AUDIO
-define:ENABLE_CACHING
-define:ENABLE_CLOTH
-define:ENABLE_EVENT_QUEUE
-define:ENABLE_MICROPHONE
-define:ENABLE_MULTIPLE_DISPLAYS
-define:ENABLE_PHYSICS
-define:ENABLE_TEXTURE_STREAMING
-define:ENABLE_VIRTUALTEXTURING
-define:ENABLE_UNET
-define:ENABLE_LZMA
-define:ENABLE_UNITYEVENTS
-define:ENABLE_VR
-define:ENABLE_WEBCAM
-define:ENABLE_UNITYWEBREQUEST
-define:ENABLE_WWW
-define:ENABLE_CLOUD_SERVICES
-define:ENABLE_CLOUD_SERVICES_COLLAB
-define:ENABLE_CLOUD_SERVICES_COLLAB_SOFTLOCKS
-define:ENABLE_CLOUD_SERVICES_ADS
-define:ENABLE_CLOUD_SERVICES_USE_WEBREQUEST
-define:ENABLE_CLOUD_SERVICES_CRASH_REPORTING
-define:ENABLE_CLOUD_SERVICES_PURCHASING
-define:ENABLE_CLOUD_SERVICES_ANALYTICS
-define:ENABLE_CLOUD_SERVICES_UNET
-define:ENABLE_CLOUD_SERVICES_BUILD
-define:ENABLE_CLOUD_LICENSE
-define:ENABLE_EDITOR_HUB_LICENSE
-define:ENABLE_WEBSOCKET_CLIENT
-define:ENABLE_DIRECTOR_AUDIO
-define:ENABLE_DIRECTOR_TEXTURE
-define:ENABLE_MANAGED_JOBS
-define:ENABLE_MANAGED_TRANSFORM_JOBS
-define:ENABLE_MANAGED_ANIMATION_JOBS
-define:ENABLE_MANAGED_AUDIO_JOBS
-define:INCLUDE_DYNAMIC_GI
-define:ENABLE_MONO_BDWGC
-define:ENABLE_SCRIPTING_GC_WBARRIERS
-define:PLATFORM_SUPPORTS_MONO
-define:RENDER_SOFTWARE_CURSOR
-define:ENABLE_VIDEO
-define:PLATFORM_STANDALONE
-define:PLATFORM_STANDALONE_WIN
-define:UNITY_STANDALONE_WIN
-define:UNITY_STANDALONE
-define:ENABLE_RUNTIME_GI
-define:ENABLE_MOVIES
-define:ENABLE_NETWORK
-define:ENABLE_CRUNCH_TEXTURE_COMPRESSION
-define:ENABLE_OUT_OF_PROCESS_CRASH_HANDLER
-define:ENABLE_CLUSTER_SYNC
-define:ENABLE_CLUSTERINPUT
-define:PLATFORM_UPDATES_TIME_OUTSIDE_OF_PLAYER_LOOP
-define:GFXDEVICE_WAITFOREVENT_MESSAGEPUMP
-define:ENABLE_WEBSOCKET_HOST
-define:ENABLE_MONO
-define:NET_4_6
-define:ENABLE_PROFILER
-define:DEBUG
-define:TRACE
-define:UNITY_ASSERTIONS
-define:UNITY_EDITOR
-define:UNITY_EDITOR_64
-define:UNITY_EDITOR_WIN
-define:ENABLE_UNITY_COLLECTIONS_CHECKS
-define:ENABLE_BURST_AOT
-define:UNITY_TEAM_LICENSE
-define:ENABLE_CUSTOM_RENDER_TEXTURE
-define:ENABLE_DIRECTOR
-define:ENABLE_LOCALIZATION
-define:ENABLE_SPRITES
-define:ENABLE_TERRAIN
-define:ENABLE_TILEMAP
-define:ENABLE_TIMELINE
-define:ENABLE_LEGACY_INPUT_MANAGER
-define:HDRP_1_OR_NEWER
-define:ENABLE_VR_MODULE
-define:ENABLE_XR_MODULE
-define:CSHARP_7_OR_LATER
-define:CSHARP_7_3_OR_NEWER
-r:"E:/Kyle's Stuff/Gits/Repos/Arcade-Maniac/Source/Library/PackageCache/com.unity.collab-proxy@1.13.5/Lib/Editor/PlasticSCM/log4netPlastic.dll"
-r:"E:/Kyle's Stuff/Gits/Repos/Arcade-Maniac/Source/Library/PackageCache/com.unity.collab-proxy@1.13.5/Lib/Editor/PlasticSCM/Unity.Plastic.Antlr3.Runtime.dll"
-r:"E:/Kyle's Stuff/Gits/Repos/Arcade-Maniac/Source/Library/PackageCache/com.unity.collab-proxy@1.13.5/Lib/Editor/PlasticSCM/Unity.Plastic.Newtonsoft.Json.dll"
-r:"E:/Kyle's Stuff/Gits/Repos/Arcade-Maniac/Source/Library/PackageCache/com.unity.collab-proxy@1.13.5/Lib/Editor/PlasticSCM/unityplastic.dll"
-r:"E:/Kyle's Stuff/Gits/Repos/Arcade-Maniac/Source/Library/PackageCache/com.unity.nuget.newtonsoft-json@2.0.0/Runtime/Newtonsoft.Json.dll"
-r:"E:/Kyle's Stuff/Gits/Repos/Arcade-Maniac/Source/Library/PackageCache/com.unity.visualscripting@1.6.1/Editor/VisualScripting.Core/Dependencies/DotNetZip/Unity.VisualScripting.IonicZip.dll"
-r:"E:/Kyle's Stuff/Gits/Repos/Arcade-Maniac/Source/Library/PackageCache/com.unity.visualscripting@1.6.1/Editor/VisualScripting.Core/Dependencies/YamlDotNet/Unity.VisualScripting.YamlDotNet.dll"
-r:"E:/Kyle's Stuff/Gits/Repos/Arcade-Maniac/Source/Library/PackageCache/com.unity.visualscripting@1.6.1/Runtime/VisualScripting.Flow/Dependencies/NCalc/Unity.VisualScripting.Antlr3.Runtime.dll"
-r:"E:/Unity Editors/2021.1.26f1/Editor/Data/Managed/UnityEditor.Graphs.dll"
-r:"E:/Unity Editors/2021.1.26f1/Editor/Data/Managed/UnityEngine/UnityEditor.CoreModule.dll"
-r:"E:/Unity Editors/2021.1.26f1/Editor/Data/Managed/UnityEngine/UnityEditor.DeviceSimulatorModule.dll"
-r:"E:/Unity Editors/2021.1.26f1/Editor/Data/Managed/UnityEngine/UnityEditor.dll"
-r:"E:/Unity Editors/2021.1.26f1/Editor/Data/Managed/UnityEngine/UnityEditor.GraphViewModule.dll"
-r:"E:/Unity Editors/2021.1.26f1/Editor/Data/Managed/UnityEngine/UnityEditor.PackageManagerUIModule.dll"
-r:"E:/Unity Editors/2021.1.26f1/Editor/Data/Managed/UnityEngine/UnityEditor.QuickSearchModule.dll"
-r:"E:/Unity Editors/2021.1.26f1/Editor/Data/Managed/UnityEngine/UnityEditor.SceneTemplateModule.dll"
-r:"E:/Unity Editors/2021.1.26f1/Editor/Data/Managed/UnityEngine/UnityEditor.UIBuilderModule.dll"
-r:"E:/Unity Editors/2021.1.26f1/Editor/Data/Managed/UnityEngine/UnityEditor.UIElementsModule.dll"
-r:"E:/Unity Editors/2021.1.26f1/Editor/Data/Managed/UnityEngine/UnityEditor.UIElementsSamplesModule.dll"
-r:"E:/Unity Editors/2021.1.26f1/Editor/Data/Managed/UnityEngine/UnityEditor.UIServiceModule.dll"
-r:"E:/Unity Editors/2021.1.26f1/Editor/Data/Managed/UnityEngine/UnityEditor.UnityConnectModule.dll"
-r:"E:/Unity Editors/2021.1.26f1/Editor/Data/Managed/UnityEngine/UnityEngine.AccessibilityModule.dll"
-r:"E:/Unity Editors/2021.1.26f1/Editor/Data/Managed/UnityEngine/UnityEngine.AIModule.dll"
-r:"E:/Unity Editors/2021.1.26f1/Editor/Data/Managed/UnityEngine/UnityEngine.AndroidJNIModule.dll"
-r:"E:/Unity Editors/2021.1.26f1/Editor/Data/Managed/UnityEngine/UnityEngine.AnimationModule.dll"
-r:"E:/Unity Editors/2021.1.26f1/Editor/Data/Managed/UnityEngine/UnityEngine.ARModule.dll"
-r:"E:/Unity Editors/2021.1.26f1/Editor/Data/Managed/UnityEngine/UnityEngine.AssetBundleModule.dll"
-r:"E:/Unity Editors/2021.1.26f1/Editor/Data/Managed/UnityEngine/UnityEngine.AudioModule.dll"
-r:"E:/Unity Editors/2021.1.26f1/Editor/Data/Managed/UnityEngine/UnityEngine.ClothModule.dll"
-r:"E:/Unity Editors/2021.1.26f1/Editor/Data/Managed/UnityEngine/UnityEngine.ClusterInputModule.dll"
-r:"E:/Unity Editors/2021.1.26f1/Editor/Data/Managed/UnityEngine/UnityEngine.ClusterRendererModule.dll"
-r:"E:/Unity Editors/2021.1.26f1/Editor/Data/Managed/UnityEngine/UnityEngine.CoreModule.dll"
-r:"E:/Unity Editors/2021.1.26f1/Editor/Data/Managed/UnityEngine/UnityEngine.CrashReportingModule.dll"
-r:"E:/Unity Editors/2021.1.26f1/Editor/Data/Managed/UnityEngine/UnityEngine.DirectorModule.dll"
-r:"E:/Unity Editors/2021.1.26f1/Editor/Data/Managed/UnityEngine/UnityEngine.dll"
-r:"E:/Unity Editors/2021.1.26f1/Editor/Data/Managed/UnityEngine/UnityEngine.DSPGraphModule.dll"
-r:"E:/Unity Editors/2021.1.26f1/Editor/Data/Managed/UnityEngine/UnityEngine.GameCenterModule.dll"
-r:"E:/Unity Editors/2021.1.26f1/Editor/Data/Managed/UnityEngine/UnityEngine.GIModule.dll"
-r:"E:/Unity Editors/2021.1.26f1/Editor/Data/Managed/UnityEngine/UnityEngine.GridModule.dll"
-r:"E:/Unity Editors/2021.1.26f1/Editor/Data/Managed/UnityEngine/UnityEngine.HotReloadModule.dll"
-r:"E:/Unity Editors/2021.1.26f1/Editor/Data/Managed/UnityEngine/UnityEngine.ImageConversionModule.dll"
-r:"E:/Unity Editors/2021.1.26f1/Editor/Data/Managed/UnityEngine/UnityEngine.IMGUIModule.dll"
-r:"E:/Unity Editors/2021.1.26f1/Editor/Data/Managed/UnityEngine/UnityEngine.InputLegacyModule.dll"
-r:"E:/Unity Editors/2021.1.26f1/Editor/Data/Managed/UnityEngine/UnityEngine.InputModule.dll"
-r:"E:/Unity Editors/2021.1.26f1/Editor/Data/Managed/UnityEngine/UnityEngine.JSONSerializeModule.dll"
-r:"E:/Unity Editors/2021.1.26f1/Editor/Data/Managed/UnityEngine/UnityEngine.LocalizationModule.dll"
-r:"E:/Unity Editors/2021.1.26f1/Editor/Data/Managed/UnityEngine/UnityEngine.ParticleSystemModule.dll"
-r:"E:/Unity Editors/2021.1.26f1/Editor/Data/Managed/UnityEngine/UnityEngine.PerformanceReportingModule.dll"
-r:"E:/Unity Editors/2021.1.26f1/Editor/Data/Managed/UnityEngine/UnityEngine.Physics2DModule.dll"
-r:"E:/Unity Editors/2021.1.26f1/Editor/Data/Managed/UnityEngine/UnityEngine.PhysicsModule.dll"
-r:"E:/Unity Editors/2021.1.26f1/Editor/Data/Managed/UnityEngine/UnityEngine.ProfilerModule.dll"
-r:"E:/Unity Editors/2021.1.26f1/Editor/Data/Managed/UnityEngine/UnityEngine.RuntimeInitializeOnLoadManagerInitializerModule.dll"
-r:"E:/Unity Editors/2021.1.26f1/Editor/Data/Managed/UnityEngine/UnityEngine.ScreenCaptureModule.dll"
-r:"E:/Unity Editors/2021.1.26f1/Editor/Data/Managed/UnityEngine/UnityEngine.SharedInternalsModule.dll"
-r:"E:/Unity Editors/2021.1.26f1/Editor/Data/Managed/UnityEngine/UnityEngine.SpriteMaskModule.dll"
-r:"E:/Unity Editors/2021.1.26f1/Editor/Data/Managed/UnityEngine/UnityEngine.SpriteShapeModule.dll"
-r:"E:/Unity Editors/2021.1.26f1/Editor/Data/Managed/UnityEngine/UnityEngine.StreamingModule.dll"
-r:"E:/Unity Editors/2021.1.26f1/Editor/Data/Managed/UnityEngine/UnityEngine.SubstanceModule.dll"
-r:"E:/Unity Editors/2021.1.26f1/Editor/Data/Managed/UnityEngine/UnityEngine.SubsystemsModule.dll"
-r:"E:/Unity Editors/2021.1.26f1/Editor/Data/Managed/UnityEngine/UnityEngine.TerrainModule.dll"
-r:"E:/Unity Editors/2021.1.26f1/Editor/Data/Managed/UnityEngine/UnityEngine.TerrainPhysicsModule.dll"
-r:"E:/Unity Editors/2021.1.26f1/Editor/Data/Managed/UnityEngine/UnityEngine.TextCoreModule.dll"
-r:"E:/Unity Editors/2021.1.26f1/Editor/Data/Managed/UnityEngine/UnityEngine.TextRenderingModule.dll"
-r:"E:/Unity Editors/2021.1.26f1/Editor/Data/Managed/UnityEngine/UnityEngine.TilemapModule.dll"
-r:"E:/Unity Editors/2021.1.26f1/Editor/Data/Managed/UnityEngine/UnityEngine.TLSModule.dll"
-r:"E:/Unity Editors/2021.1.26f1/Editor/Data/Managed/UnityEngine/UnityEngine.UIElementsModule.dll"
-r:"E:/Unity Editors/2021.1.26f1/Editor/Data/Managed/UnityEngine/UnityEngine.UIElementsNativeModule.dll"
-r:"E:/Unity Editors/2021.1.26f1/Editor/Data/Managed/UnityEngine/UnityEngine.UIModule.dll"
-r:"E:/Unity Editors/2021.1.26f1/Editor/Data/Managed/UnityEngine/UnityEngine.UmbraModule.dll"
-r:"E:/Unity Editors/2021.1.26f1/Editor/Data/Managed/UnityEngine/UnityEngine.UNETModule.dll"
-r:"E:/Unity Editors/2021.1.26f1/Editor/Data/Managed/UnityEngine/UnityEngine.UnityAnalyticsModule.dll"
-r:"E:/Unity Editors/2021.1.26f1/Editor/Data/Managed/UnityEngine/UnityEngine.UnityConnectModule.dll"
-r:"E:/Unity Editors/2021.1.26f1/Editor/Data/Managed/UnityEngine/UnityEngine.UnityCurlModule.dll"
-r:"E:/Unity Editors/2021.1.26f1/Editor/Data/Managed/UnityEngine/UnityEngine.UnityTestProtocolModule.dll"
-r:"E:/Unity Editors/2021.1.26f1/Editor/Data/Managed/UnityEngine/UnityEngine.UnityWebRequestAssetBundleModule.dll"
-r:"E:/Unity Editors/2021.1.26f1/Editor/Data/Managed/UnityEngine/UnityEngine.UnityWebRequestAudioModule.dll"
-r:"E:/Unity Editors/2021.1.26f1/Editor/Data/Managed/UnityEngine/UnityEngine.UnityWebRequestModule.dll"
-r:"E:/Unity Editors/2021.1.26f1/Editor/Data/Managed/UnityEngine/UnityEngine.UnityWebRequestTextureModule.dll"
-r:"E:/Unity Editors/2021.1.26f1/Editor/Data/Managed/UnityEngine/UnityEngine.UnityWebRequestWWWModule.dll"
-r:"E:/Unity Editors/2021.1.26f1/Editor/Data/Managed/UnityEngine/UnityEngine.VehiclesModule.dll"
-r:"E:/Unity Editors/2021.1.26f1/Editor/Data/Managed/UnityEngine/UnityEngine.VFXModule.dll"
-r:"E:/Unity Editors/2021.1.26f1/Editor/Data/Managed/UnityEngine/UnityEngine.VideoModule.dll"
-r:"E:/Unity Editors/2021.1.26f1/Editor/Data/Managed/UnityEngine/UnityEngine.VirtualTexturingModule.dll"
-r:"E:/Unity Editors/2021.1.26f1/Editor/Data/Managed/UnityEngine/UnityEngine.VRModule.dll"
-r:"E:/Unity Editors/2021.1.26f1/Editor/Data/Managed/UnityEngine/UnityEngine.WindModule.dll"
-r:"E:/Unity Editors/2021.1.26f1/Editor/Data/Managed/UnityEngine/UnityEngine.XRModule.dll"
-r:"E:/Unity Editors/2021.1.26f1/Editor/Data/MonoBleedingEdge/lib/mono/4.7.1-api/Facades/Microsoft.Win32.Primitives.dll"
-r:"E:/Unity Editors/2021.1.26f1/Editor/Data/MonoBleedingEdge/lib/mono/4.7.1-api/Facades/netstandard.dll"
-r:"E:/Unity Editors/2021.1.26f1/Editor/Data/MonoBleedingEdge/lib/mono/4.7.1-api/Facades/System.AppContext.dll"
-r:"E:/Unity Editors/2021.1.26f1/Editor/Data/MonoBleedingEdge/lib/mono/4.7.1-api/Facades/System.Collections.Concurrent.dll"
-r:"E:/Unity Editors/2021.1.26f1/Editor/Data/MonoBleedingEdge/lib/mono/4.7.1-api/Facades/System.Collections.dll"
-r:"E:/Unity Editors/2021.1.26f1/Editor/Data/MonoBleedingEdge/lib/mono/4.7.1-api/Facades/System.Collections.NonGeneric.dll"
-r:"E:/Unity Editors/2021.1.26f1/Editor/Data/MonoBleedingEdge/lib/mono/4.7.1-api/Facades/System.Collections.Specialized.dll"
-r:"E:/Unity Editors/2021.1.26f1/Editor/Data/MonoBleedingEdge/lib/mono/4.7.1-api/Facades/System.ComponentModel.Annotations.dll"
-r:"E:/Unity Editors/2021.1.26f1/Editor/Data/MonoBleedingEdge/lib/mono/4.7.1-api/Facades/System.ComponentModel.dll"
-r:"E:/Unity Editors/2021.1.26f1/Editor/Data/MonoBleedingEdge/lib/mono/4.7.1-api/Facades/System.ComponentModel.EventBasedAsync.dll"
-r:"E:/Unity Editors/2021.1.26f1/Editor/Data/MonoBleedingEdge/lib/mono/4.7.1-api/Facades/System.ComponentModel.Primitives.dll"
-r:"E:/Unity Editors/2021.1.26f1/Editor/Data/MonoBleedingEdge/lib/mono/4.7.1-api/Facades/System.ComponentModel.TypeConverter.dll"
-r:"E:/Unity Editors/2021.1.26f1/Editor/Data/MonoBleedingEdge/lib/mono/4.7.1-api/Facades/System.Console.dll"
-r:"E:/Unity Editors/2021.1.26f1/Editor/Data/MonoBleedingEdge/lib/mono/4.7.1-api/Facades/System.Data.Common.dll"
-r:"E:/Unity Editors/2021.1.26f1/Editor/Data/MonoBleedingEdge/lib/mono/4.7.1-api/Facades/System.Diagnostics.Contracts.dll"
-r:"E:/Unity Editors/2021.1.26f1/Editor/Data/MonoBleedingEdge/lib/mono/4.7.1-api/Facades/System.Diagnostics.Debug.dll"
-r:"E:/Unity Editors/2021.1.26f1/Editor/Data/MonoBleedingEdge/lib/mono/4.7.1-api/Facades/System.Diagnostics.FileVersionInfo.dll"
-r:"E:/Unity Editors/2021.1.26f1/Editor/Data/MonoBleedingEdge/lib/mono/4.7.1-api/Facades/System.Diagnostics.Process.dll"
-r:"E:/Unity Editors/2021.1.26f1/Editor/Data/MonoBleedingEdge/lib/mono/4.7.1-api/Facades/System.Diagnostics.StackTrace.dll"
-r:"E:/Unity Editors/2021.1.26f1/Editor/Data/MonoBleedingEdge/lib/mono/4.7.1-api/Facades/System.Diagnostics.TextWriterTraceListener.dll"
-r:"E:/Unity Editors/2021.1.26f1/Editor/Data/MonoBleedingEdge/lib/mono/4.7.1-api/Facades/System.Diagnostics.Tools.dll"
-r:"E:/Unity Editors/2021.1.26f1/Editor/Data/MonoBleedingEdge/lib/mono/4.7.1-api/Facades/System.Diagnostics.TraceSource.dll"
-r:"E:/Unity Editors/2021.1.26f1/Editor/Data/MonoBleedingEdge/lib/mono/4.7.1-api/Facades/System.Drawing.Primitives.dll"
-r:"E:/Unity Editors/2021.1.26f1/Editor/Data/MonoBleedingEdge/lib/mono/4.7.1-api/Facades/System.Dynamic.Runtime.dll"
-r:"E:/Unity Editors/2021.1.26f1/Editor/Data/MonoBleedingEdge/lib/mono/4.7.1-api/Facades/System.Globalization.Calendars.dll"
-r:"E:/Unity Editors/2021.1.26f1/Editor/Data/MonoBleedingEdge/lib/mono/4.7.1-api/Facades/System.Globalization.dll"
-r:"E:/Unity Editors/2021.1.26f1/Editor/Data/MonoBleedingEdge/lib/mono/4.7.1-api/Facades/System.Globalization.Extensions.dll"
-r:"E:/Unity Editors/2021.1.26f1/Editor/Data/MonoBleedingEdge/lib/mono/4.7.1-api/Facades/System.IO.Compression.ZipFile.dll"
-r:"E:/Unity Editors/2021.1.26f1/Editor/Data/MonoBleedingEdge/lib/mono/4.7.1-api/Facades/System.IO.dll"
-r:"E:/Unity Editors/2021.1.26f1/Editor/Data/MonoBleedingEdge/lib/mono/4.7.1-api/Facades/System.IO.FileSystem.dll"
-r:"E:/Unity Editors/2021.1.26f1/Editor/Data/MonoBleedingEdge/lib/mono/4.7.1-api/Facades/System.IO.FileSystem.DriveInfo.dll"
-r:"E:/Unity Editors/2021.1.26f1/Editor/Data/MonoBleedingEdge/lib/mono/4.7.1-api/Facades/System.IO.FileSystem.Primitives.dll"
-r:"E:/Unity Editors/2021.1.26f1/Editor/Data/MonoBleedingEdge/lib/mono/4.7.1-api/Facades/System.IO.FileSystem.Watcher.dll"
-r:"E:/Unity Editors/2021.1.26f1/Editor/Data/MonoBleedingEdge/lib/mono/4.7.1-api/Facades/System.IO.IsolatedStorage.dll"
-r:"E:/Unity Editors/2021.1.26f1/Editor/Data/MonoBleedingEdge/lib/mono/4.7.1-api/Facades/System.IO.MemoryMappedFiles.dll"
-r:"E:/Unity Editors/2021.1.26f1/Editor/Data/MonoBleedingEdge/lib/mono/4.7.1-api/Facades/System.IO.Pipes.dll"
-r:"E:/Unity Editors/2021.1.26f1/Editor/Data/MonoBleedingEdge/lib/mono/4.7.1-api/Facades/System.IO.UnmanagedMemoryStream.dll"
-r:"E:/Unity Editors/2021.1.26f1/Editor/Data/MonoBleedingEdge/lib/mono/4.7.1-api/Facades/System.Linq.dll"
-r:"E:/Unity Editors/2021.1.26f1/Editor/Data/MonoBleedingEdge/lib/mono/4.7.1-api/Facades/System.Linq.Expressions.dll"
-r:"E:/Unity Editors/2021.1.26f1/Editor/Data/MonoBleedingEdge/lib/mono/4.7.1-api/Facades/System.Linq.Parallel.dll"
-r:"E:/Unity Editors/2021.1.26f1/Editor/Data/MonoBleedingEdge/lib/mono/4.7.1-api/Facades/System.Linq.Queryable.dll"
-r:"E:/Unity Editors/2021.1.26f1/Editor/Data/MonoBleedingEdge/lib/mono/4.7.1-api/Facades/System.Net.Http.Rtc.dll"
-r:"E:/Unity Editors/2021.1.26f1/Editor/Data/MonoBleedingEdge/lib/mono/4.7.1-api/Facades/System.Net.NameResolution.dll"
-r:"E:/Unity Editors/2021.1.26f1/Editor/Data/MonoBleedingEdge/lib/mono/4.7.1-api/Facades/System.Net.NetworkInformation.dll"
-r:"E:/Unity Editors/2021.1.26f1/Editor/Data/MonoBleedingEdge/lib/mono/4.7.1-api/Facades/System.Net.Ping.dll"
-r:"E:/Unity Editors/2021.1.26f1/Editor/Data/MonoBleedingEdge/lib/mono/4.7.1-api/Facades/System.Net.Primitives.dll"
-r:"E:/Unity Editors/2021.1.26f1/Editor/Data/MonoBleedingEdge/lib/mono/4.7.1-api/Facades/System.Net.Requests.dll"
-r:"E:/Unity Editors/2021.1.26f1/Editor/Data/MonoBleedingEdge/lib/mono/4.7.1-api/Facades/System.Net.Security.dll"
-r:"E:/Unity Editors/2021.1.26f1/Editor/Data/MonoBleedingEdge/lib/mono/4.7.1-api/Facades/System.Net.Sockets.dll"
-r:"E:/Unity Editors/2021.1.26f1/Editor/Data/MonoBleedingEdge/lib/mono/4.7.1-api/Facades/System.Net.WebHeaderCollection.dll"
-r:"E:/Unity Editors/2021.1.26f1/Editor/Data/MonoBleedingEdge/lib/mono/4.7.1-api/Facades/System.Net.WebSockets.Client.dll"
-r:"E:/Unity Editors/2021.1.26f1/Editor/Data/MonoBleedingEdge/lib/mono/4.7.1-api/Facades/System.Net.WebSockets.dll"
-r:"E:/Unity Editors/2021.1.26f1/Editor/Data/MonoBleedingEdge/lib/mono/4.7.1-api/Facades/System.ObjectModel.dll"
-r:"E:/Unity Editors/2021.1.26f1/Editor/Data/MonoBleedingEdge/lib/mono/4.7.1-api/Facades/System.Reflection.dll"
-r:"E:/Unity Editors/2021.1.26f1/Editor/Data/MonoBleedingEdge/lib/mono/4.7.1-api/Facades/System.Reflection.Emit.dll"
-r:"E:/Unity Editors/2021.1.26f1/Editor/Data/MonoBleedingEdge/lib/mono/4.7.1-api/Facades/System.Reflection.Emit.ILGeneration.dll"
-r:"E:/Unity Editors/2021.1.26f1/Editor/Data/MonoBleedingEdge/lib/mono/4.7.1-api/Facades/System.Reflection.Emit.Lightweight.dll"
-r:"E:/Unity Editors/2021.1.26f1/Editor/Data/MonoBleedingEdge/lib/mono/4.7.1-api/Facades/System.Reflection.Extensions.dll"
-r:"E:/Unity Editors/2021.1.26f1/Editor/Data/MonoBleedingEdge/lib/mono/4.7.1-api/Facades/System.Reflection.Primitives.dll"
-r:"E:/Unity Editors/2021.1.26f1/Editor/Data/MonoBleedingEdge/lib/mono/4.7.1-api/Facades/System.Resources.Reader.dll"
-r:"E:/Unity Editors/2021.1.26f1/Editor/Data/MonoBleedingEdge/lib/mono/4.7.1-api/Facades/System.Resources.ResourceManager.dll"
-r:"E:/Unity Editors/2021.1.26f1/Editor/Data/MonoBleedingEdge/lib/mono/4.7.1-api/Facades/System.Resources.Writer.dll"
-r:"E:/Unity Editors/2021.1.26f1/Editor/Data/MonoBleedingEdge/lib/mono/4.7.1-api/Facades/System.Runtime.CompilerServices.VisualC.dll"
-r:"E:/Unity Editors/2021.1.26f1/Editor/Data/MonoBleedingEdge/lib/mono/4.7.1-api/Facades/System.Runtime.dll"
-r:"E:/Unity Editors/2021.1.26f1/Editor/Data/MonoBleedingEdge/lib/mono/4.7.1-api/Facades/System.Runtime.Extensions.dll"
-r:"E:/Unity Editors/2021.1.26f1/Editor/Data/MonoBleedingEdge/lib/mono/4.7.1-api/Facades/System.Runtime.Handles.dll"
-r:"E:/Unity Editors/2021.1.26f1/Editor/Data/MonoBleedingEdge/lib/mono/4.7.1-api/Facades/System.Runtime.InteropServices.dll"
-r:"E:/Unity Editors/2021.1.26f1/Editor/Data/MonoBleedingEdge/lib/mono/4.7.1-api/Facades/System.Runtime.InteropServices.RuntimeInformation.dll"
-r:"E:/Unity Editors/2021.1.26f1/Editor/Data/MonoBleedingEdge/lib/mono/4.7.1-api/Facades/System.Runtime.InteropServices.WindowsRuntime.dll"
-r:"E:/Unity Editors/2021.1.26f1/Editor/Data/MonoBleedingEdge/lib/mono/4.7.1-api/Facades/System.Runtime.Numerics.dll"
-r:"E:/Unity Editors/2021.1.26f1/Editor/Data/MonoBleedingEdge/lib/mono/4.7.1-api/Facades/System.Runtime.Serialization.Formatters.dll"
-r:"E:/Unity Editors/2021.1.26f1/Editor/Data/MonoBleedingEdge/lib/mono/4.7.1-api/Facades/System.Runtime.Serialization.Json.dll"
-r:"E:/Unity Editors/2021.1.26f1/Editor/Data/MonoBleedingEdge/lib/mono/4.7.1-api/Facades/System.Runtime.Serialization.Primitives.dll"
-r:"E:/Unity Editors/2021.1.26f1/Editor/Data/MonoBleedingEdge/lib/mono/4.7.1-api/Facades/System.Runtime.Serialization.Xml.dll"
-r:"E:/Unity Editors/2021.1.26f1/Editor/Data/MonoBleedingEdge/lib/mono/4.7.1-api/Facades/System.Security.Claims.dll"
-r:"E:/Unity Editors/2021.1.26f1/Editor/Data/MonoBleedingEdge/lib/mono/4.7.1-api/Facades/System.Security.Cryptography.Algorithms.dll"
-r:"E:/Unity Editors/2021.1.26f1/Editor/Data/MonoBleedingEdge/lib/mono/4.7.1-api/Facades/System.Security.Cryptography.Csp.dll"
-r:"E:/Unity Editors/2021.1.26f1/Editor/Data/MonoBleedingEdge/lib/mono/4.7.1-api/Facades/System.Security.Cryptography.Encoding.dll"
-r:"E:/Unity Editors/2021.1.26f1/Editor/Data/MonoBleedingEdge/lib/mono/4.7.1-api/Facades/System.Security.Cryptography.Primitives.dll"
-r:"E:/Unity Editors/2021.1.26f1/Editor/Data/MonoBleedingEdge/lib/mono/4.7.1-api/Facades/System.Security.Cryptography.X509Certificates.dll"
-r:"E:/Unity Editors/2021.1.26f1/Editor/Data/MonoBleedingEdge/lib/mono/4.7.1-api/Facades/System.Security.Principal.dll"
-r:"E:/Unity Editors/2021.1.26f1/Editor/Data/MonoBleedingEdge/lib/mono/4.7.1-api/Facades/System.Security.SecureString.dll"
-r:"E:/Unity Editors/2021.1.26f1/Editor/Data/MonoBleedingEdge/lib/mono/4.7.1-api/Facades/System.ServiceModel.Duplex.dll"
-r:"E:/Unity Editors/2021.1.26f1/Editor/Data/MonoBleedingEdge/lib/mono/4.7.1-api/Facades/System.ServiceModel.Http.dll"
-r:"E:/Unity Editors/2021.1.26f1/Editor/Data/MonoBleedingEdge/lib/mono/4.7.1-api/Facades/System.ServiceModel.NetTcp.dll"
-r:"E:/Unity Editors/2021.1.26f1/Editor/Data/MonoBleedingEdge/lib/mono/4.7.1-api/Facades/System.ServiceModel.Primitives.dll"
-r:"E:/Unity Editors/2021.1.26f1/Editor/Data/MonoBleedingEdge/lib/mono/4.7.1-api/Facades/System.ServiceModel.Security.dll"
-r:"E:/Unity Editors/2021.1.26f1/Editor/Data/MonoBleedingEdge/lib/mono/4.7.1-api/Facades/System.Text.Encoding.dll"
-r:"E:/Unity Editors/2021.1.26f1/Editor/Data/MonoBleedingEdge/lib/mono/4.7.1-api/Facades/System.Text.Encoding.Extensions.dll"
-r:"E:/Unity Editors/2021.1.26f1/Editor/Data/MonoBleedingEdge/lib/mono/4.7.1-api/Facades/System.Text.RegularExpressions.dll"
-r:"E:/Unity Editors/2021.1.26f1/Editor/Data/MonoBleedingEdge/lib/mono/4.7.1-api/Facades/System.Threading.dll"
-r:"E:/Unity Editors/2021.1.26f1/Editor/Data/MonoBleedingEdge/lib/mono/4.7.1-api/Facades/System.Threading.Overlapped.dll"
-r:"E:/Unity Editors/2021.1.26f1/Editor/Data/MonoBleedingEdge/lib/mono/4.7.1-api/Facades/System.Threading.Tasks.dll"
-r:"E:/Unity Editors/2021.1.26f1/Editor/Data/MonoBleedingEdge/lib/mono/4.7.1-api/Facades/System.Threading.Tasks.Parallel.dll"
-r:"E:/Unity Editors/2021.1.26f1/Editor/Data/MonoBleedingEdge/lib/mono/4.7.1-api/Facades/System.Threading.Thread.dll"
-r:"E:/Unity Editors/2021.1.26f1/Editor/Data/MonoBleedingEdge/lib/mono/4.7.1-api/Facades/System.Threading.ThreadPool.dll"
-r:"E:/Unity Editors/2021.1.26f1/Editor/Data/MonoBleedingEdge/lib/mono/4.7.1-api/Facades/System.Threading.Timer.dll"
-r:"E:/Unity Editors/2021.1.26f1/Editor/Data/MonoBleedingEdge/lib/mono/4.7.1-api/Facades/System.ValueTuple.dll"
-r:"E:/Unity Editors/2021.1.26f1/Editor/Data/MonoBleedingEdge/lib/mono/4.7.1-api/Facades/System.Xml.ReaderWriter.dll"
-r:"E:/Unity Editors/2021.1.26f1/Editor/Data/MonoBleedingEdge/lib/mono/4.7.1-api/Facades/System.Xml.XDocument.dll"
-r:"E:/Unity Editors/2021.1.26f1/Editor/Data/MonoBleedingEdge/lib/mono/4.7.1-api/Facades/System.Xml.XmlDocument.dll"
-r:"E:/Unity Editors/2021.1.26f1/Editor/Data/MonoBleedingEdge/lib/mono/4.7.1-api/Facades/System.Xml.XmlSerializer.dll"
-r:"E:/Unity Editors/2021.1.26f1/Editor/Data/MonoBleedingEdge/lib/mono/4.7.1-api/Facades/System.Xml.XPath.dll"
-r:"E:/Unity Editors/2021.1.26f1/Editor/Data/MonoBleedingEdge/lib/mono/4.7.1-api/Facades/System.Xml.XPath.XDocument.dll"
-r:"E:/Unity Editors/2021.1.26f1/Editor/Data/MonoBleedingEdge/lib/mono/4.7.1-api/Microsoft.CSharp.dll"
-r:"E:/Unity Editors/2021.1.26f1/Editor/Data/MonoBleedingEdge/lib/mono/4.7.1-api/mscorlib.dll"
-r:"E:/Unity Editors/2021.1.26f1/Editor/Data/MonoBleedingEdge/lib/mono/4.7.1-api/System.Core.dll"
-r:"E:/Unity Editors/2021.1.26f1/Editor/Data/MonoBleedingEdge/lib/mono/4.7.1-api/System.Data.dll"
-r:"E:/Unity Editors/2021.1.26f1/Editor/Data/MonoBleedingEdge/lib/mono/4.7.1-api/System.dll"
-r:"E:/Unity Editors/2021.1.26f1/Editor/Data/MonoBleedingEdge/lib/mono/4.7.1-api/System.IO.Compression.dll"
-r:"E:/Unity Editors/2021.1.26f1/Editor/Data/MonoBleedingEdge/lib/mono/4.7.1-api/System.Net.Http.dll"
-r:"E:/Unity Editors/2021.1.26f1/Editor/Data/MonoBleedingEdge/lib/mono/4.7.1-api/System.Numerics.dll"
-r:"E:/Unity Editors/2021.1.26f1/Editor/Data/MonoBleedingEdge/lib/mono/4.7.1-api/System.Numerics.Vectors.dll"
-r:"E:/Unity Editors/2021.1.26f1/Editor/Data/MonoBleedingEdge/lib/mono/4.7.1-api/System.Runtime.Serialization.dll"
-r:"E:/Unity Editors/2021.1.26f1/Editor/Data/MonoBleedingEdge/lib/mono/4.7.1-api/System.Xml.dll"
-r:"E:/Unity Editors/2021.1.26f1/Editor/Data/MonoBleedingEdge/lib/mono/4.7.1-api/System.Xml.Linq.dll"
-r:"E:/Unity Editors/2021.1.26f1/Editor/Data/PlaybackEngines/MetroSupport/UnityEditor.UWP.Extensions.dll"
-r:"E:/Unity Editors/2021.1.26f1/Editor/Data/PlaybackEngines/WindowsStandaloneSupport/UnityEditor.WindowsStandalone.Extensions.dll"
-r:"Library/Bee/artifacts/1900b0aE.dag/Unity.RenderPipelines.Core.Runtime.ref.dll"
-r:"Library/Bee/artifacts/1900b0aE.dag/Unity.RenderPipelines.HighDefinition.Config.Runtime.ref.dll"
-r:"Library/Bee/artifacts/1900b0aE.dag/Unity.VisualEffectGraph.Runtime.ref.dll"
-r:"Library/Bee/artifacts/1900b0aE.dag/UnityEditor.UI.ref.dll"
-r:"Library/Bee/artifacts/1900b0aE.dag/UnityEngine.UI.ref.dll"
"Library/PackageCache/com.unity.render-pipelines.high-definition@11.0.0/Runtime/AssemblyInfo.cs"
"Library/PackageCache/com.unity.render-pipelines.high-definition@11.0.0/Runtime/ComponentUtility.cs"
"Library/PackageCache/com.unity.render-pipelines.high-definition@11.0.0/Runtime/Compositor/AdditionalCompositorData.cs"
"Library/PackageCache/com.unity.render-pipelines.high-definition@11.0.0/Runtime/Compositor/AlphaInjection.cs"
"Library/PackageCache/com.unity.render-pipelines.high-definition@11.0.0/Runtime/Compositor/ChromaKeying.cs"
"Library/PackageCache/com.unity.render-pipelines.high-definition@11.0.0/Runtime/Compositor/CompositionFilter.cs"
"Library/PackageCache/com.unity.render-pipelines.high-definition@11.0.0/Runtime/Compositor/CompositionLayer.cs"
"Library/PackageCache/com.unity.render-pipelines.high-definition@11.0.0/Runtime/Compositor/CompositionManager.cs"
"Library/PackageCache/com.unity.render-pipelines.high-definition@11.0.0/Runtime/Compositor/CompositionProfile.cs"
"Library/PackageCache/com.unity.render-pipelines.high-definition@11.0.0/Runtime/Compositor/CompositorCameraRegistry.cs"
"Library/PackageCache/com.unity.render-pipelines.high-definition@11.0.0/Runtime/Compositor/CustomClear.cs"
"Library/PackageCache/com.unity.render-pipelines.high-definition@11.0.0/Runtime/Compositor/ShaderProperty.cs"
"Library/PackageCache/com.unity.render-pipelines.high-definition@11.0.0/Runtime/Core/CoreResources/GPUCopy.cs"
"Library/PackageCache/com.unity.render-pipelines.high-definition@11.0.0/Runtime/Core/Debugging/FrameSettingsFieldAttribute.cs"
"Library/PackageCache/com.unity.render-pipelines.high-definition@11.0.0/Runtime/Core/Migration/IVersionable.cs"
"Library/PackageCache/com.unity.render-pipelines.high-definition@11.0.0/Runtime/Core/Migration/MigrationDescription.cs"
"Library/PackageCache/com.unity.render-pipelines.high-definition@11.0.0/Runtime/Core/Migration/MigrationStep.cs"
"Library/PackageCache/com.unity.render-pipelines.high-definition@11.0.0/Runtime/Core/Textures/EncodeBC6H.cs"
"Library/PackageCache/com.unity.render-pipelines.high-definition@11.0.0/Runtime/Core/Textures/TextureCache.cs"
"Library/PackageCache/com.unity.render-pipelines.high-definition@11.0.0/Runtime/Core/Textures/TextureCache2D.cs"
"Library/PackageCache/com.unity.render-pipelines.high-definition@11.0.0/Runtime/Core/Textures/TextureCacheCubemap.cs"
"Library/PackageCache/com.unity.render-pipelines.high-definition@11.0.0/Runtime/Core/Utilities/GeometryUtils.cs"
"Library/PackageCache/com.unity.render-pipelines.high-definition@11.0.0/Runtime/Debug/ColorPickerDebug.cs"
"Library/PackageCache/com.unity.render-pipelines.high-definition@11.0.0/Runtime/Debug/DebugDisplay.cs"
"Library/PackageCache/com.unity.render-pipelines.high-definition@11.0.0/Runtime/Debug/DebugLightVolumes.cs"
"Library/PackageCache/com.unity.render-pipelines.high-definition@11.0.0/Runtime/Debug/DebugOverlay.cs"
"Library/PackageCache/com.unity.render-pipelines.high-definition@11.0.0/Runtime/Debug/DecalsDebug.cs"
"Library/PackageCache/com.unity.render-pipelines.high-definition@11.0.0/Runtime/Debug/FalseColorDebug.cs"
"Library/PackageCache/com.unity.render-pipelines.high-definition@11.0.0/Runtime/Debug/LightingDebug.cs"
"Library/PackageCache/com.unity.render-pipelines.high-definition@11.0.0/Runtime/Debug/MaterialDebug.cs"
"Library/PackageCache/com.unity.render-pipelines.high-definition@11.0.0/Runtime/Debug/MipMapDebug.cs"
"Library/PackageCache/com.unity.render-pipelines.high-definition@11.0.0/Runtime/Debug/RayCountManager.cs"
"Library/PackageCache/com.unity.render-pipelines.high-definition@11.0.0/Runtime/Debug/TransparencyDebug.cs"
"Library/PackageCache/com.unity.render-pipelines.high-definition@11.0.0/Runtime/Debug/VolumeDebug.cs"
"Library/PackageCache/com.unity.render-pipelines.high-definition@11.0.0/Runtime/Documentation.cs"
"Library/PackageCache/com.unity.render-pipelines.high-definition@11.0.0/Runtime/Lighting/AtmosphericScattering/AtmosphericScattering.cs"
"Library/PackageCache/com.unity.render-pipelines.high-definition@11.0.0/Runtime/Lighting/AtmosphericScattering/ExponentialFog.cs"
"Library/PackageCache/com.unity.render-pipelines.high-definition@11.0.0/Runtime/Lighting/AtmosphericScattering/Fog.cs"
"Library/PackageCache/com.unity.render-pipelines.high-definition@11.0.0/Runtime/Lighting/AtmosphericScattering/VolumetricFog.cs"
"Library/PackageCache/com.unity.render-pipelines.high-definition@11.0.0/Runtime/Lighting/DiffusionProfileOverride.cs"
"Library/PackageCache/com.unity.render-pipelines.high-definition@11.0.0/Runtime/Lighting/GlobalIllumination.cs"
"Library/PackageCache/com.unity.render-pipelines.high-definition@11.0.0/Runtime/Lighting/GlobalIlluminationUtils.cs"
"Library/PackageCache/com.unity.render-pipelines.high-definition@11.0.0/Runtime/Lighting/IndirectLightingController.cs"
"Library/PackageCache/com.unity.render-pipelines.high-definition@11.0.0/Runtime/Lighting/Light/HDAdditionalLightData.cs"
"Library/PackageCache/com.unity.render-pipelines.high-definition@11.0.0/Runtime/Lighting/Light/HDAdditionalLightData.Migration.cs"
"Library/PackageCache/com.unity.render-pipelines.high-definition@11.0.0/Runtime/Lighting/Light/HDAdditionalLightData.Types.cs"
"Library/PackageCache/com.unity.render-pipelines.high-definition@11.0.0/Runtime/Lighting/LightCookieManager.cs"
"Library/PackageCache/com.unity.render-pipelines.high-definition@11.0.0/Runtime/Lighting/LightDefinition.cs"
"Library/PackageCache/com.unity.render-pipelines.high-definition@11.0.0/Runtime/Lighting/LightLoop/GlobalLightLoopSettings.cs"
"Library/PackageCache/com.unity.render-pipelines.high-definition@11.0.0/Runtime/Lighting/LightLoop/LightLoop.cs"
"Library/PackageCache/com.unity.render-pipelines.high-definition@11.0.0/Runtime/Lighting/LightUtils.cs"
"Library/PackageCache/com.unity.render-pipelines.high-definition@11.0.0/Runtime/Lighting/ProbeVolume/GlobalProbeVolumeSettings.cs"
"Library/PackageCache/com.unity.render-pipelines.high-definition@11.0.0/Runtime/Lighting/ProbeVolume/ProbeVolume.cs"
"Library/PackageCache/com.unity.render-pipelines.high-definition@11.0.0/Runtime/Lighting/ProbeVolume/ProbeVolumeAsset.cs"
"Library/PackageCache/com.unity.render-pipelines.high-definition@11.0.0/Runtime/Lighting/ProbeVolume/ProbeVolumeController.cs"
"Library/PackageCache/com.unity.render-pipelines.high-definition@11.0.0/Runtime/Lighting/ProbeVolume/ProbeVolumeLighting.cs"
"Library/PackageCache/com.unity.render-pipelines.high-definition@11.0.0/Runtime/Lighting/ProbeVolume/ProbeVolumeManager.cs"
"Library/PackageCache/com.unity.render-pipelines.high-definition@11.0.0/Runtime/Lighting/Reflection/HDAdditionalReflectionData.cs"
"Library/PackageCache/com.unity.render-pipelines.high-definition@11.0.0/Runtime/Lighting/Reflection/HDAdditionalReflectionData.Legacy.cs"
"Library/PackageCache/com.unity.render-pipelines.high-definition@11.0.0/Runtime/Lighting/Reflection/HDAdditionalReflectionData.Migration.cs"
"Library/PackageCache/com.unity.render-pipelines.high-definition@11.0.0/Runtime/Lighting/Reflection/HDProbe.cs"
"Library/PackageCache/com.unity.render-pipelines.high-definition@11.0.0/Runtime/Lighting/Reflection/HDProbe.Migration.cs"
"Library/PackageCache/com.unity.render-pipelines.high-definition@11.0.0/Runtime/Lighting/Reflection/HDProbeCullingResults.cs"
"Library/PackageCache/com.unity.render-pipelines.high-definition@11.0.0/Runtime/Lighting/Reflection/HDProbeCullState.cs"
"Library/PackageCache/com.unity.render-pipelines.high-definition@11.0.0/Runtime/Lighting/Reflection/HDProbeSystem.cs"
"Library/PackageCache/com.unity.render-pipelines.high-definition@11.0.0/Runtime/Lighting/Reflection/HDRuntimeReflectionSystem.cs"
"Library/PackageCache/com.unity.render-pipelines.high-definition@11.0.0/Runtime/Lighting/Reflection/PlanarReflectionProbe.cs"
"Library/PackageCache/com.unity.render-pipelines.high-definition@11.0.0/Runtime/Lighting/Reflection/PlanarReflectionProbe.Migration.cs"
"Library/PackageCache/com.unity.render-pipelines.high-definition@11.0.0/Runtime/Lighting/Reflection/PlanarReflectionProbeCache.cs"
"Library/PackageCache/com.unity.render-pipelines.high-definition@11.0.0/Runtime/Lighting/Reflection/ReflectionProbeCache.cs"
"Library/PackageCache/com.unity.render-pipelines.high-definition@11.0.0/Runtime/Lighting/Reflection/ReflectionSystemParameters.cs"
"Library/PackageCache/com.unity.render-pipelines.high-definition@11.0.0/Runtime/Lighting/Reflection/Volume/InfluenceVolume.cs"
"Library/PackageCache/com.unity.render-pipelines.high-definition@11.0.0/Runtime/Lighting/Reflection/Volume/InfluenceVolume.Editor.cs"
"Library/PackageCache/com.unity.render-pipelines.high-definition@11.0.0/Runtime/Lighting/Reflection/Volume/InfluenceVolume.Migration.cs"
"Library/PackageCache/com.unity.render-pipelines.high-definition@11.0.0/Runtime/Lighting/Reflection/Volume/ProxyVolume.cs"
"Library/PackageCache/com.unity.render-pipelines.high-definition@11.0.0/Runtime/Lighting/Reflection/Volume/ProxyVolume.Migration.cs"
"Library/PackageCache/com.unity.render-pipelines.high-definition@11.0.0/Runtime/Lighting/Reflection/Volume/ReflectionProxyVolumeComponent.cs"
"Library/PackageCache/com.unity.render-pipelines.high-definition@11.0.0/Runtime/Lighting/Reflection/Volume/ShapeType.cs"
"Library/PackageCache/com.unity.render-pipelines.high-definition@11.0.0/Runtime/Lighting/ScreenSpaceLighting/AmbientOcclusion.cs"
"Library/PackageCache/com.unity.render-pipelines.high-definition@11.0.0/Runtime/Lighting/ScreenSpaceLighting/AmbientOcclusion.RenderGraph.cs"
"Library/PackageCache/com.unity.render-pipelines.high-definition@11.0.0/Runtime/Lighting/ScreenSpaceLighting/ScreenSpaceGlobalIllumination.cs"
"Library/PackageCache/com.unity.render-pipelines.high-definition@11.0.0/Runtime/Lighting/ScreenSpaceLighting/ScreenSpaceGlobalIllumination.RenderGraph.cs"
"Library/PackageCache/com.unity.render-pipelines.high-definition@11.0.0/Runtime/Lighting/ScreenSpaceLighting/ScreenSpaceReflection.cs"
"Library/PackageCache/com.unity.render-pipelines.high-definition@11.0.0/Runtime/Lighting/ScreenSpaceLighting/ScreenSpaceRefraction.cs"
"Library/PackageCache/com.unity.render-pipelines.high-definition@11.0.0/Runtime/Lighting/ScreenSpaceLighting/ShaderVariablesAmbientOcclusion.cs"
"Library/PackageCache/com.unity.render-pipelines.high-definition@11.0.0/Runtime/Lighting/ScreenSpaceLighting/ShaderVariablesScreenSpaceReflection.cs"
"Library/PackageCache/com.unity.render-pipelines.high-definition@11.0.0/Runtime/Lighting/ScreenSpaceLighting/SSGIDenoiser.cs"
"Library/PackageCache/com.unity.render-pipelines.high-definition@11.0.0/Runtime/Lighting/Shadow/AdditionalShadowData.cs"
"Library/PackageCache/com.unity.render-pipelines.high-definition@11.0.0/Runtime/Lighting/Shadow/ContactShadows.cs"
"Library/PackageCache/com.unity.render-pipelines.high-definition@11.0.0/Runtime/Lighting/Shadow/HDCachedShadowAtlas.cs"
"Library/PackageCache/com.unity.render-pipelines.high-definition@11.0.0/Runtime/Lighting/Shadow/HDCachedShadowManager.cs"
"Library/PackageCache/com.unity.render-pipelines.high-definition@11.0.0/Runtime/Lighting/Shadow/HDDynamicShadowAtlas.cs"
"Library/PackageCache/com.unity.render-pipelines.high-definition@11.0.0/Runtime/Lighting/Shadow/HDShadowAtlas.cs"
"Library/PackageCache/com.unity.render-pipelines.high-definition@11.0.0/Runtime/Lighting/Shadow/HDShadowManager.cs"
"Library/PackageCache/com.unity.render-pipelines.high-definition@11.0.0/Runtime/Lighting/Shadow/HDShadowManager.RenderGraph.cs"
"Library/PackageCache/com.unity.render-pipelines.high-definition@11.0.0/Runtime/Lighting/Shadow/HDShadowSettings.cs"
"Library/PackageCache/com.unity.render-pipelines.high-definition@11.0.0/Runtime/Lighting/Shadow/HDShadowUtils.cs"
"Library/PackageCache/com.unity.render-pipelines.high-definition@11.0.0/Runtime/Lighting/Shadow/MicroShadowing.cs"
"Library/PackageCache/com.unity.render-pipelines.high-definition@11.0.0/Runtime/Lighting/Shadow/ScreenSpaceShadowManager.cs"
"Library/PackageCache/com.unity.render-pipelines.high-definition@11.0.0/Runtime/Lighting/Shadow/ScreenSpaceShadowManager.RenderGraph.cs"
"Library/PackageCache/com.unity.render-pipelines.high-definition@11.0.0/Runtime/Lighting/Shadow/ScreenSpaceShadowManagerArea.cs"
"Library/PackageCache/com.unity.render-pipelines.high-definition@11.0.0/Runtime/Lighting/Shadow/ScreenSpaceShadowManagerDirectional.cs"
"Library/PackageCache/com.unity.render-pipelines.high-definition@11.0.0/Runtime/Lighting/Shadow/ScreenSpaceShadowManagerDirectional.RenderGraph.cs"
"Library/PackageCache/com.unity.render-pipelines.high-definition@11.0.0/Runtime/Lighting/Shadow/ScreenSpaceShadowManagerPunctual.cs"
"Library/PackageCache/com.unity.render-pipelines.high-definition@11.0.0/Runtime/Lighting/Shadow/ScreenSpaceShadowManagerPunctual.RenderGraph.cs"
"Library/PackageCache/com.unity.render-pipelines.high-definition@11.0.0/Runtime/Lighting/SphericalHarmonics.cs"
"Library/PackageCache/com.unity.render-pipelines.high-definition@11.0.0/Runtime/Lighting/VolumetricLighting/DensityVolume.cs"
"Library/PackageCache/com.unity.render-pipelines.high-definition@11.0.0/Runtime/Lighting/VolumetricLighting/DensityVolume.Migration.cs"
"Library/PackageCache/com.unity.render-pipelines.high-definition@11.0.0/Runtime/Lighting/VolumetricLighting/DensityVolumeManager.cs"
"Library/PackageCache/com.unity.render-pipelines.high-definition@11.0.0/Runtime/Lighting/VolumetricLighting/Texture3DAtlas.cs"
"Library/PackageCache/com.unity.render-pipelines.high-definition@11.0.0/Runtime/Lighting/VolumetricLighting/VolumetricLighting.cs"
"Library/PackageCache/com.unity.render-pipelines.high-definition@11.0.0/Runtime/Lighting/VolumetricLighting/VolumetricLightingController.cs"
"Library/PackageCache/com.unity.render-pipelines.high-definition@11.0.0/Runtime/Material/AxF/AxF.cs"
"Library/PackageCache/com.unity.render-pipelines.high-definition@11.0.0/Runtime/Material/AxF/AxFLTCAreaLight/LtcData.GGX2.cs"
"Library/PackageCache/com.unity.render-pipelines.high-definition@11.0.0/Runtime/Material/Builtin/BuiltinData.cs"
"Library/PackageCache/com.unity.render-pipelines.high-definition@11.0.0/Runtime/Material/Decal/Decal.cs"
"Library/PackageCache/com.unity.render-pipelines.high-definition@11.0.0/Runtime/Material/Decal/DecalProjector.cs"
"Library/PackageCache/com.unity.render-pipelines.high-definition@11.0.0/Runtime/Material/Decal/DecalProjector.Migration.cs"
"Library/PackageCache/com.unity.render-pipelines.high-definition@11.0.0/Runtime/Material/Decal/DecalSystem.cs"
"Library/PackageCache/com.unity.render-pipelines.high-definition@11.0.0/Runtime/Material/Decal/GlobalDecalSettings.cs"
"Library/PackageCache/com.unity.render-pipelines.high-definition@11.0.0/Runtime/Material/DecalMeshBiasTypeEnum.cs"
"Library/PackageCache/com.unity.render-pipelines.high-definition@11.0.0/Runtime/Material/DiffusionProfile/DiffusionProfileSettings.cs"
"Library/PackageCache/com.unity.render-pipelines.high-definition@11.0.0/Runtime/Material/DiffusionProfile/DiffusionProfileSettings.Migration.cs"
"Library/PackageCache/com.unity.render-pipelines.high-definition@11.0.0/Runtime/Material/Eye/Eye.cs"
"Library/PackageCache/com.unity.render-pipelines.high-definition@11.0.0/Runtime/Material/Fabric/Fabric.cs"
"Library/PackageCache/com.unity.render-pipelines.high-definition@11.0.0/Runtime/Material/Fabric/IBLFilterCharlie.cs"
"Library/PackageCache/com.unity.render-pipelines.high-definition@11.0.0/Runtime/Material/GGXConvolution/GGXConvolution.cs"
"Library/PackageCache/com.unity.render-pipelines.high-definition@11.0.0/Runtime/Material/GGXConvolution/IBLFilterGGX.cs"
"Library/PackageCache/com.unity.render-pipelines.high-definition@11.0.0/Runtime/Material/Hair/Hair.cs"
"Library/PackageCache/com.unity.render-pipelines.high-definition@11.0.0/Runtime/Material/IBLFilterBSDF.cs"
"Library/PackageCache/com.unity.render-pipelines.high-definition@11.0.0/Runtime/Material/Lit/Lit.cs"
"Library/PackageCache/com.unity.render-pipelines.high-definition@11.0.0/Runtime/Material/LTCAreaLight/LTCAreaLight.cs"
"Library/PackageCache/com.unity.render-pipelines.high-definition@11.0.0/Runtime/Material/LTCAreaLight/LtcData.DisneyDiffuse.cs"
"Library/PackageCache/com.unity.render-pipelines.high-definition@11.0.0/Runtime/Material/LTCAreaLight/LtcData.GGX.cs"
"Library/PackageCache/com.unity.render-pipelines.high-definition@11.0.0/Runtime/Material/MaterialBlendModeEnum.cs"
"Library/PackageCache/com.unity.render-pipelines.high-definition@11.0.0/Runtime/Material/MaterialExtension.cs"
"Library/PackageCache/com.unity.render-pipelines.high-definition@11.0.0/Runtime/Material/PreIntegratedFGD/PreIntegratedFGD.cs"
"Library/PackageCache/com.unity.render-pipelines.high-definition@11.0.0/Runtime/Material/RenderPipelineMaterial.cs"
"Library/PackageCache/com.unity.render-pipelines.high-definition@11.0.0/Runtime/Material/SphericalCapPivot/PivotData.GGX.cs"
"Library/PackageCache/com.unity.render-pipelines.high-definition@11.0.0/Runtime/Material/SphericalCapPivot/SPTDistribution.cs"
"Library/PackageCache/com.unity.render-pipelines.high-definition@11.0.0/Runtime/Material/StackLit/StackLit.cs"
"Library/PackageCache/com.unity.render-pipelines.high-definition@11.0.0/Runtime/Material/SubsurfaceScattering/SubSurfaceScattering.cs"
"Library/PackageCache/com.unity.render-pipelines.high-definition@11.0.0/Runtime/Material/SubsurfaceScattering/SubsurfaceScatteringManager.cs"
"Library/PackageCache/com.unity.render-pipelines.high-definition@11.0.0/Runtime/Material/SubsurfaceScattering/SubsurfaceScatteringManagerRT.cs"
"Library/PackageCache/com.unity.render-pipelines.high-definition@11.0.0/Runtime/Material/Unlit/Unlit.cs"
"Library/PackageCache/com.unity.render-pipelines.high-definition@11.0.0/Runtime/Material/VTBufferManager.cs"
"Library/PackageCache/com.unity.render-pipelines.high-definition@11.0.0/Runtime/PackageInfo.cs"
"Library/PackageCache/com.unity.render-pipelines.high-definition@11.0.0/Runtime/PostProcessing/Components/Bloom.cs"
"Library/PackageCache/com.unity.render-pipelines.high-definition@11.0.0/Runtime/PostProcessing/Components/ChannelMixer.cs"
"Library/PackageCache/com.unity.render-pipelines.high-definition@11.0.0/Runtime/PostProcessing/Components/ChromaticAberration.cs"
"Library/PackageCache/com.unity.render-pipelines.high-definition@11.0.0/Runtime/PostProcessing/Components/ColorAdjustments.cs"
"Library/PackageCache/com.unity.render-pipelines.high-definition@11.0.0/Runtime/PostProcessing/Components/ColorCurves.cs"
"Library/PackageCache/com.unity.render-pipelines.high-definition@11.0.0/Runtime/PostProcessing/Components/DepthOfField.cs"
"Library/PackageCache/com.unity.render-pipelines.high-definition@11.0.0/Runtime/PostProcessing/Components/Exposure.cs"
"Library/PackageCache/com.unity.render-pipelines.high-definition@11.0.0/Runtime/PostProcessing/Components/FilmGrain.cs"
"Library/PackageCache/com.unity.render-pipelines.high-definition@11.0.0/Runtime/PostProcessing/Components/LensDistortion.cs"
"Library/PackageCache/com.unity.render-pipelines.high-definition@11.0.0/Runtime/PostProcessing/Components/LiftGammaGain.cs"
"Library/PackageCache/com.unity.render-pipelines.high-definition@11.0.0/Runtime/PostProcessing/Components/MotionBlur.cs"
"Library/PackageCache/com.unity.render-pipelines.high-definition@11.0.0/Runtime/PostProcessing/Components/PaniniProjection.cs"
"Library/PackageCache/com.unity.render-pipelines.high-definition@11.0.0/Runtime/PostProcessing/Components/ShadowsMidtonesHighlights.cs"
"Library/PackageCache/com.unity.render-pipelines.high-definition@11.0.0/Runtime/PostProcessing/Components/SplitToning.cs"
"Library/PackageCache/com.unity.render-pipelines.high-definition@11.0.0/Runtime/PostProcessing/Components/Tonemapping.cs"
"Library/PackageCache/com.unity.render-pipelines.high-definition@11.0.0/Runtime/PostProcessing/Components/Vignette.cs"
"Library/PackageCache/com.unity.render-pipelines.high-definition@11.0.0/Runtime/PostProcessing/Components/WhiteBalance.cs"
"Library/PackageCache/com.unity.render-pipelines.high-definition@11.0.0/Runtime/PostProcessing/CustomPostProcessing/CustomPostProcessInjectionPoint.cs"
"Library/PackageCache/com.unity.render-pipelines.high-definition@11.0.0/Runtime/PostProcessing/CustomPostProcessing/CustomPostProcessVolumeComponent.cs"
"Library/PackageCache/com.unity.render-pipelines.high-definition@11.0.0/Runtime/PostProcessing/GlobalPostProcessSettings.cs"
"Library/PackageCache/com.unity.render-pipelines.high-definition@11.0.0/Runtime/PostProcessing/IPostProcessComponent.cs"
"Library/PackageCache/com.unity.render-pipelines.high-definition@11.0.0/Runtime/PostProcessing/PostProcessSystem.cs"
"Library/PackageCache/com.unity.render-pipelines.high-definition@11.0.0/Runtime/PostProcessing/PostProcessSystem.RenderGraph.cs"
"Library/PackageCache/com.unity.render-pipelines.high-definition@11.0.0/Runtime/PostProcessing/Shaders/UberPostFeatures.cs"
"Library/PackageCache/com.unity.render-pipelines.high-definition@11.0.0/Runtime/RenderPipeline/Accumulation/SubFrameManager.cs"
"Library/PackageCache/com.unity.render-pipelines.high-definition@11.0.0/Runtime/RenderPipeline/Camera/HDAdditionalCameraData.cs"
"Library/PackageCache/com.unity.render-pipelines.high-definition@11.0.0/Runtime/RenderPipeline/Camera/HDAdditionalCameraData.Migration.cs"
"Library/PackageCache/com.unity.render-pipelines.high-definition@11.0.0/Runtime/RenderPipeline/Camera/HDCamera.cs"
"Library/PackageCache/com.unity.render-pipelines.high-definition@11.0.0/Runtime/RenderPipeline/Camera/HDCameraFrameHistoryType.cs"
"Library/PackageCache/com.unity.render-pipelines.high-definition@11.0.0/Runtime/RenderPipeline/CullingGroupManager.cs"
"Library/PackageCache/com.unity.render-pipelines.high-definition@11.0.0/Runtime/RenderPipeline/GlobalLightingQualitySettings.cs"
"Library/PackageCache/com.unity.render-pipelines.high-definition@11.0.0/Runtime/RenderPipeline/GlobalLowResolutionTransparencySettings.cs"
"Library/PackageCache/com.unity.render-pipelines.high-definition@11.0.0/Runtime/RenderPipeline/GlobalPostProcessingQualitySettings.cs"
"Library/PackageCache/com.unity.render-pipelines.high-definition@11.0.0/Runtime/RenderPipeline/HDProfileId.cs"
"Library/PackageCache/com.unity.render-pipelines.high-definition@11.0.0/Runtime/RenderPipeline/HDRenderPipeline.cs"
"Library/PackageCache/com.unity.render-pipelines.high-definition@11.0.0/Runtime/RenderPipeline/HDRenderPipeline.Debug.cs"
"Library/PackageCache/com.unity.render-pipelines.high-definition@11.0.0/Runtime/RenderPipeline/HDRenderPipeline.LightLoop.cs"
"Library/PackageCache/com.unity.render-pipelines.high-definition@11.0.0/Runtime/RenderPipeline/HDRenderPipeline.LookDev.cs"
"Library/PackageCache/com.unity.render-pipelines.high-definition@11.0.0/Runtime/RenderPipeline/HDRenderPipeline.PostProcess.cs"
"Library/PackageCache/com.unity.render-pipelines.high-definition@11.0.0/Runtime/RenderPipeline/HDRenderPipeline.Prepass.cs"
"Library/PackageCache/com.unity.render-pipelines.high-definition@11.0.0/Runtime/RenderPipeline/HDRenderPipeline.RenderGraph.cs"
"Library/PackageCache/com.unity.render-pipelines.high-definition@11.0.0/Runtime/RenderPipeline/HDRenderPipeline.RenderGraphUtils.cs"
"Library/PackageCache/com.unity.render-pipelines.high-definition@11.0.0/Runtime/RenderPipeline/HDRenderPipeline.SubsurfaceScattering.cs"
"Library/PackageCache/com.unity.render-pipelines.high-definition@11.0.0/Runtime/RenderPipeline/HDRenderPipelineAsset.cs"
"Library/PackageCache/com.unity.render-pipelines.high-definition@11.0.0/Runtime/RenderPipeline/HDRenderPipelineAsset.Migration.cs"
"Library/PackageCache/com.unity.render-pipelines.high-definition@11.0.0/Runtime/RenderPipeline/HDRenderPipelineEditorResources.cs"
"Library/PackageCache/com.unity.render-pipelines.high-definition@11.0.0/Runtime/RenderPipeline/HDRenderPipelineEditorResources.Migration.cs"
"Library/PackageCache/com.unity.render-pipelines.high-definition@11.0.0/Runtime/RenderPipeline/HDRenderPipelineRayTracingResources.cs"
"Library/PackageCache/com.unity.render-pipelines.high-definition@11.0.0/Runtime/RenderPipeline/HDRenderQueue.cs"
"Library/PackageCache/com.unity.render-pipelines.high-definition@11.0.0/Runtime/RenderPipeline/HDStencilUsage.cs"
"Library/PackageCache/com.unity.render-pipelines.high-definition@11.0.0/Runtime/RenderPipeline/HDStringConstants.cs"
"Library/PackageCache/com.unity.render-pipelines.high-definition@11.0.0/Runtime/RenderPipeline/MRTBufferManager.cs"
"Library/PackageCache/com.unity.render-pipelines.high-definition@11.0.0/Runtime/RenderPipeline/PathTracing/PathTracing.cs"
"Library/PackageCache/com.unity.render-pipelines.high-definition@11.0.0/Runtime/RenderPipeline/Raytracing/HDDiffuseDenoiser.cs"
"Library/PackageCache/com.unity.render-pipelines.high-definition@11.0.0/Runtime/RenderPipeline/Raytracing/HDDiffuseShadowDenoiser.cs"
"Library/PackageCache/com.unity.render-pipelines.high-definition@11.0.0/Runtime/RenderPipeline/Raytracing/HDRaytracingAmbientOcclusion.cs"
"Library/PackageCache/com.unity.render-pipelines.high-definition@11.0.0/Runtime/RenderPipeline/Raytracing/HDRaytracingAmbientOcclusion.RenderGraph.cs"
"Library/PackageCache/com.unity.render-pipelines.high-definition@11.0.0/Runtime/RenderPipeline/Raytracing/HDRaytracingDeferredLightLoop.cs"
"Library/PackageCache/com.unity.render-pipelines.high-definition@11.0.0/Runtime/RenderPipeline/Raytracing/HDRaytracingDeferredLightLoop.RenderGraph.cs"
"Library/PackageCache/com.unity.render-pipelines.high-definition@11.0.0/Runtime/RenderPipeline/Raytracing/HDRaytracingIndirectDiffuse.cs"
"Library/PackageCache/com.unity.render-pipelines.high-definition@11.0.0/Runtime/RenderPipeline/Raytracing/HDRaytracingIndirectDiffuse.RenderGraph.cs"
"Library/PackageCache/com.unity.render-pipelines.high-definition@11.0.0/Runtime/RenderPipeline/Raytracing/HDRaytracingLightCluster.cs"
"Library/PackageCache/com.unity.render-pipelines.high-definition@11.0.0/Runtime/RenderPipeline/Raytracing/HDRaytracingManager.cs"
"Library/PackageCache/com.unity.render-pipelines.high-definition@11.0.0/Runtime/RenderPipeline/Raytracing/HDRaytracingRecursiveRenderer.cs"
"Library/PackageCache/com.unity.render-pipelines.high-definition@11.0.0/Runtime/RenderPipeline/Raytracing/HDRaytracingReflection.cs"
"Library/PackageCache/com.unity.render-pipelines.high-definition@11.0.0/Runtime/RenderPipeline/Raytracing/HDRaytracingReflection.RenderGraph.cs"
"Library/PackageCache/com.unity.render-pipelines.high-definition@11.0.0/Runtime/RenderPipeline/Raytracing/HDReflectionDenoiser.cs"
"Library/PackageCache/com.unity.render-pipelines.high-definition@11.0.0/Runtime/RenderPipeline/Raytracing/HDSimpleDenoiser.cs"
"Library/PackageCache/com.unity.render-pipelines.high-definition@11.0.0/Runtime/RenderPipeline/Raytracing/HDTemporalFilter.cs"
"Library/PackageCache/com.unity.render-pipelines.high-definition@11.0.0/Runtime/RenderPipeline/Raytracing/HDTemporalFilter.RenderGraph.cs"
"Library/PackageCache/com.unity.render-pipelines.high-definition@11.0.0/Runtime/RenderPipeline/Raytracing/LightCluster.cs"
"Library/PackageCache/com.unity.render-pipelines.high-definition@11.0.0/Runtime/RenderPipeline/Raytracing/RayTracingMode.cs"
"Library/PackageCache/com.unity.render-pipelines.high-definition@11.0.0/Runtime/RenderPipeline/Raytracing/RayTracingSettings.cs"
"Library/PackageCache/com.unity.render-pipelines.high-definition@11.0.0/Runtime/RenderPipeline/Raytracing/RecursiveRendering.cs"
"Library/PackageCache/com.unity.render-pipelines.high-definition@11.0.0/Runtime/RenderPipeline/Raytracing/Shaders/ShaderVariablesRaytracing.cs"
"Library/PackageCache/com.unity.render-pipelines.high-definition@11.0.0/Runtime/RenderPipeline/Raytracing/Shaders/ShaderVariablesRaytracingLightLoop.cs"
"Library/PackageCache/com.unity.render-pipelines.high-definition@11.0.0/Runtime/RenderPipeline/RenderPass/AOV/AOVBuffers.cs"
"Library/PackageCache/com.unity.render-pipelines.high-definition@11.0.0/Runtime/RenderPipeline/RenderPass/AOV/AOVRequest.cs"
"Library/PackageCache/com.unity.render-pipelines.high-definition@11.0.0/Runtime/RenderPipeline/RenderPass/AOV/AOVRequestBuilder.cs"
"Library/PackageCache/com.unity.render-pipelines.high-definition@11.0.0/Runtime/RenderPipeline/RenderPass/AOV/AOVRequestData.cs"
"Library/PackageCache/com.unity.render-pipelines.high-definition@11.0.0/Runtime/RenderPipeline/RenderPass/AOV/AOVRequestDataCollection.cs"
"Library/PackageCache/com.unity.render-pipelines.high-definition@11.0.0/Runtime/RenderPipeline/RenderPass/AOV/RenderOutputProperties.cs"
"Library/PackageCache/com.unity.render-pipelines.high-definition@11.0.0/Runtime/RenderPipeline/RenderPass/CustomPass/CustomPass.cs"
"Library/PackageCache/com.unity.render-pipelines.high-definition@11.0.0/Runtime/RenderPipeline/RenderPass/CustomPass/CustomPassContext.cs"
"Library/PackageCache/com.unity.render-pipelines.high-definition@11.0.0/Runtime/RenderPipeline/RenderPass/CustomPass/CustomPassInjectionPoint.cs"
"Library/PackageCache/com.unity.render-pipelines.high-definition@11.0.0/Runtime/RenderPipeline/RenderPass/CustomPass/CustomPassUtils.cs"
"Library/PackageCache/com.unity.render-pipelines.high-definition@11.0.0/Runtime/RenderPipeline/RenderPass/CustomPass/CustomPassVolume.cs"
"Library/PackageCache/com.unity.render-pipelines.high-definition@11.0.0/Runtime/RenderPipeline/RenderPass/DrawRenderersCustomPass.cs"
"Library/PackageCache/com.unity.render-pipelines.high-definition@11.0.0/Runtime/RenderPipeline/RenderPass/FullScreenCustomPass.cs"
"Library/PackageCache/com.unity.render-pipelines.high-definition@11.0.0/Runtime/RenderPipeline/RenderPass/MipGenerator.cs"
"Library/PackageCache/com.unity.render-pipelines.high-definition@11.0.0/Runtime/RenderPipeline/RenderPipelineResources.cs"
"Library/PackageCache/com.unity.render-pipelines.high-definition@11.0.0/Runtime/RenderPipeline/RenderPipelineResources.Migration.cs"
"Library/PackageCache/com.unity.render-pipelines.high-definition@11.0.0/Runtime/RenderPipeline/SceneViewDrawMode.cs"
"Library/PackageCache/com.unity.render-pipelines.high-definition@11.0.0/Runtime/RenderPipeline/Settings/CaptureSettings.cs"
"Library/PackageCache/com.unity.render-pipelines.high-definition@11.0.0/Runtime/RenderPipeline/Settings/FrameSettings.cs"
"Library/PackageCache/com.unity.render-pipelines.high-definition@11.0.0/Runtime/RenderPipeline/Settings/FrameSettings.Migration.cs"
"Library/PackageCache/com.unity.render-pipelines.high-definition@11.0.0/Runtime/RenderPipeline/Settings/FrameSettingsHistory.cs"
"Library/PackageCache/com.unity.render-pipelines.high-definition@11.0.0/Runtime/RenderPipeline/Settings/RenderPipelineSettings.cs"
"Library/PackageCache/com.unity.render-pipelines.high-definition@11.0.0/Runtime/RenderPipeline/Settings/ScalableSetting.cs"
"Library/PackageCache/com.unity.render-pipelines.high-definition@11.0.0/Runtime/RenderPipeline/Settings/ScalableSettingSchema.cs"
"Library/PackageCache/com.unity.render-pipelines.high-definition@11.0.0/Runtime/RenderPipeline/Settings/ScalableSettingSchemaId.cs"
"Library/PackageCache/com.unity.render-pipelines.high-definition@11.0.0/Runtime/RenderPipeline/Settings/ScalableSettingValue.cs"
"Library/PackageCache/com.unity.render-pipelines.high-definition@11.0.0/Runtime/RenderPipeline/ShaderPass/ShaderPass.cs"
"Library/PackageCache/com.unity.render-pipelines.high-definition@11.0.0/Runtime/RenderPipeline/Utility/BlueNoise.cs"
"Library/PackageCache/com.unity.render-pipelines.high-definition@11.0.0/Runtime/RenderPipeline/Utility/HDUtils.cs"
"Library/PackageCache/com.unity.render-pipelines.high-definition@11.0.0/Runtime/RenderPipeline/Utility/PowerOfTwoTextureAtlas.cs"
"Library/PackageCache/com.unity.render-pipelines.high-definition@11.0.0/Runtime/RenderPipeline/Utility/Texture2DAtlas.cs"
"Library/PackageCache/com.unity.render-pipelines.high-definition@11.0.0/Runtime/RenderPipeline/Utility/Texture2DAtlasDynamic.cs"
"Library/PackageCache/com.unity.render-pipelines.high-definition@11.0.0/Runtime/RenderPipeline/Utility/Texture3DAtlasDynamic.cs"
"Library/PackageCache/com.unity.render-pipelines.high-definition@11.0.0/Runtime/RenderPipeline/VirtualTexturingSettingsSRP.cs"
"Library/PackageCache/com.unity.render-pipelines.high-definition@11.0.0/Runtime/RenderPipeline/XR/GlobalXRSettings.cs"
"Library/PackageCache/com.unity.render-pipelines.high-definition@11.0.0/Runtime/RenderPipeline/XR/XRLayout.cs"
"Library/PackageCache/com.unity.render-pipelines.high-definition@11.0.0/Runtime/RenderPipeline/XR/XRPass.cs"
"Library/PackageCache/com.unity.render-pipelines.high-definition@11.0.0/Runtime/RenderPipeline/XR/XRSystem.cs"
"Library/PackageCache/com.unity.render-pipelines.high-definition@11.0.0/Runtime/Scripting/GameObjectExtension.cs"
"Library/PackageCache/com.unity.render-pipelines.high-definition@11.0.0/Runtime/ShaderLibrary/ShaderVariablesGlobal.cs"
"Library/PackageCache/com.unity.render-pipelines.high-definition@11.0.0/Runtime/ShaderLibrary/ShaderVariablesXR.cs"
"Library/PackageCache/com.unity.render-pipelines.high-definition@11.0.0/Runtime/Sky/GradientSky/GradientSky.cs"
"Library/PackageCache/com.unity.render-pipelines.high-definition@11.0.0/Runtime/Sky/GradientSky/GradientSkyRenderer.cs"
"Library/PackageCache/com.unity.render-pipelines.high-definition@11.0.0/Runtime/Sky/HDRISky/HDRISky.cs"
"Library/PackageCache/com.unity.render-pipelines.high-definition@11.0.0/Runtime/Sky/HDRISky/HDRISkyRenderer.cs"
"Library/PackageCache/com.unity.render-pipelines.high-definition@11.0.0/Runtime/Sky/PhysicallyBasedSky/PhysicallyBasedSky.cs"
"Library/PackageCache/com.unity.render-pipelines.high-definition@11.0.0/Runtime/Sky/PhysicallyBasedSky/PhysicallyBasedSky.Migration.cs"
"Library/PackageCache/com.unity.render-pipelines.high-definition@11.0.0/Runtime/Sky/PhysicallyBasedSky/PhysicallyBasedSkyRenderer.cs"
"Library/PackageCache/com.unity.render-pipelines.high-definition@11.0.0/Runtime/Sky/PhysicallyBasedSky/ShaderVariablesPhysicallyBasedSky.cs"
"Library/PackageCache/com.unity.render-pipelines.high-definition@11.0.0/Runtime/Sky/SkyManager.cs"
"Library/PackageCache/com.unity.render-pipelines.high-definition@11.0.0/Runtime/Sky/SkyRenderer.cs"
"Library/PackageCache/com.unity.render-pipelines.high-definition@11.0.0/Runtime/Sky/SkyRenderingContext.cs"
"Library/PackageCache/com.unity.render-pipelines.high-definition@11.0.0/Runtime/Sky/SkySettings.cs"
"Library/PackageCache/com.unity.render-pipelines.high-definition@11.0.0/Runtime/Sky/SkyUpdateContext.cs"
"Library/PackageCache/com.unity.render-pipelines.high-definition@11.0.0/Runtime/Sky/StaticLightingSky.cs"
"Library/PackageCache/com.unity.render-pipelines.high-definition@11.0.0/Runtime/Sky/VisualEnvironment.cs"
"Library/PackageCache/com.unity.render-pipelines.high-definition@11.0.0/Runtime/Utilities/CameraCache.cs"
"Library/PackageCache/com.unity.render-pipelines.high-definition@11.0.0/Runtime/Utilities/CameraPositionSettings.cs"
"Library/PackageCache/com.unity.render-pipelines.high-definition@11.0.0/Runtime/Utilities/CameraSettings.cs"
"Library/PackageCache/com.unity.render-pipelines.high-definition@11.0.0/Runtime/Utilities/CameraSettingsUtilities.cs"
"Library/PackageCache/com.unity.render-pipelines.high-definition@11.0.0/Runtime/Utilities/DiffusionProfileHashTable.cs"
"Library/PackageCache/com.unity.render-pipelines.high-definition@11.0.0/Runtime/Utilities/HDAdditionalSceneViewSettings.cs"
"Library/PackageCache/com.unity.render-pipelines.high-definition@11.0.0/Runtime/Utilities/HDBakingUtilities.cs"
"Library/PackageCache/com.unity.render-pipelines.high-definition@11.0.0/Runtime/Utilities/HDRenderPipelinePreferences.cs"
"Library/PackageCache/com.unity.render-pipelines.high-definition@11.0.0/Runtime/Utilities/HDRenderUtilities.cs"
"Library/PackageCache/com.unity.render-pipelines.high-definition@11.0.0/Runtime/Utilities/HDTextureUtilities.cs"
"Library/PackageCache/com.unity.render-pipelines.high-definition@11.0.0/Runtime/Utilities/ProbeCapturePositionSettings.cs"
"Library/PackageCache/com.unity.render-pipelines.high-definition@11.0.0/Runtime/Utilities/ProbeSettings.cs"
"Library/PackageCache/com.unity.render-pipelines.high-definition@11.0.0/Runtime/Utilities/ProbeSettingsUtilities.cs"
"Library/PackageCache/com.unity.render-pipelines.high-definition@11.0.0/Runtime/Utilities/SceneObjectIDMap.cs"
"Library/PackageCache/com.unity.render-pipelines.high-definition@11.0.0/Runtime/Utilities/TypeInfo.cs"
"Library/PackageCache/com.unity.render-pipelines.high-definition@11.0.0/Runtime/Utilities/VolumeComponentWithQuality.cs"
"Library/PackageCache/com.unity.render-pipelines.high-definition@11.0.0/Runtime/VFXGraph/Utility/PropertyBinders/HDRPCameraBinder.cs"
-langversion:8.0
/unsafe+
/deterministic
/optimize+
/debug:portable
/nologo
/RuntimeMetadataVersion:v4.0.30319

/nowarn:0169
/nowarn:0649
/utf8output
/preferreduilang:en-US
-warn:0